…
  Prevents extra output.

## Value

The first `xpose_data` object with new data columns

## Examples

``` r

franken_xpdb(pheno_base, pheno_final, .types="catcov") %>%
  xpose::get_data() %>%
  select(starts_with("APGR"))
#> Returning data from $prob no.1
#> # A tibble: 744 × 3
#>    APGR  APGR_1 APGR_2
#>    <fct> <fct>  <fct> 
#>  1 7     7      7     
#>  2 7     7      7     
#>  3 7     7      7     
#>  4 7     7      7     
#>  5 7     7      7     
#>  6 7     7      7     
#>  7 7     7      7     
#>  8 7     7      7     
#>  9 7     7      7     
#> 10 7     7      7     
#> # ℹ 734 more rows
```
